{
    "$schema": "https://json-schema.org/draft/2020-12/schema",
    "type": "object",
    "properties": {
        "website": {
            "type": "object",
            "patternProperties": {
                "^[a-z]{2}$": {
                    "type": "string",
                    "format": "uri"
                }
            },
            "additionalProperties": false
        },
        "alternativeJids": {
            "type": "array",
            "items": {
                "type": "string",
                "format": "idn-hostname"
            }
        },
        "busFactor": {
            "type": "integer",
            "minimum": -1,
            "not": {
                "const": 0
            }
        },
        "organization": {
            "type": "string",
            "oneOf": [
                {
                    "enum": [
                        "",
                        "company",
                        "commercial person",
                        "private person",
                        "governmental",
                        "non-governmental"
                    ]
                }
            ]
        },
        "passwordReset": {
            "type": "object",
            "patternProperties": {
                "^[a-z]{2}$": {
                    "type": "string",
                    "format": "uri"
                }
            },
            "additionalProperties": false
        },
        "serverTesting": {
            "type": "boolean"
        },
        "maximumHttpFileUploadTotalSize": {
            "type": "integer",
            "minimum": -1
        },
        "maximumHttpFileUploadStorageTime": {
            "type": "integer",
            "minimum": -1
        },
        "maximumMessageArchiveManagementStorageTime": {
            "type": "integer",
            "minimum": -1
        },
        "professionalHosting": {
            "type": "boolean"
        },
        "freeOfCharge": {
            "type": "boolean"
        },
        "legalNotice": {
            "type": "object",
            "patternProperties": {
                "^[a-z]{2}$": {
                    "type": "string",
                    "format": "uri"
                }
            },
            "additionalProperties": false
        },
        "serverLocations": {
            "type": "array",
            "items": {
                "type": "string",
                "pattern": "^[a-z]{2}$"
            }
        },
        "since": {
            "anyOf": [
                {
                    "type": "string",
                    "format": "date"
                },
                {
                    "type": "string",
                    "maxLength": 0
                }
            ]
        }
    },
    "additionalProperties": false
}
